{
  "id": "evolve-bank-and-trust",
  "type": [
    "account"
  ],
  "bankType": [
    "universal"
  ],
  "name": "Evolve Bank and Trust",
  "description": "For more than 90 years, we've had one mission: to serve you like a hometown bank should. We have branches throughout Arkansas and Tennessee, comprised of well-established and seasoned banking professionals.",
  "legalName": "Evolve Bancorp, Inc.",
  "ipoStatus": "private",
  "verified": false,
  "status": "live",
  "iconUrl": "https://res.cloudinary.com/apideck/image/upload/v1566677487/radar/icons/evolve-bank-and-trust.jpg",
  "website": "https://getevolved.com",
  "ownership": [],
  "stateOwned": false,
  "countryHQ": "US",
  "countries": [
    "US"
  ],
  "compliance": [],
  "developerPortalUrl": null,
  "developerCommunityUrl": null,
  "openBankProjectUrl": null,
  "slackCommunity": false,
  "apiAuth": [],
  "apiProducts": [],
  "apiStandards": [],
  "webApplication": true,
  "mobileApps": [],
  "stockSymbol": null,
  "investorRelationsUrl": null,
  "financialReports": [],
  "twitter": "https://www.twitter.com/getevolved1925",
  "crunchbase": null,
  "bloomberg": "https://www.bloomberg.com/profile/company/472048Z:US",
  "github": ""
}
